{
  "type": "FeatureCollection",
  "generator": "overpass-ide",
  "copyright": "The data included in this document is from www.openstreetmap.org. The data is made available under ODbL.",
  "timestamp": "2018-05-05T22:49:02Z",
  "features": [
    {
      "type": "Feature",
      "properties": {
        "@id": "way/77850587",
        "leisure": "park",
        "name": "Parc Bariteau",
        "source": "CanVec 6.0 - NRCan"
      },
      "geometry": {
        "type": "Polygon",
        "coordinates": [
          [
            [
              -73.4951024,
              45.5066519
            ],
            [
              -73.4941606,
              45.5071989
            ],
            [
              -73.4956991,
              45.508425
            ],
            [
              -73.4960692,
              45.5081124
            ],
            [
              -73.4960956,
              45.5080062
            ],
            [
              -73.4954368,
              45.50707
            ],
            [
              -73.4951024,
              45.5066519
            ]
          ]
        ]
      },
      "id": "way/77850587"
    },
    {
      "type": "Feature",
      "properties": {
        "@id": "way/200487110",
        "leisure": "park",
        "name": "Parc de Gaspé"
      },
      "geometry": {
        "type": "Polygon",
        "coordinates": [
          [
            [
              -73.6091073,
              45.5335411
            ],
            [
              -73.6092948,
              45.5333224
            ],
            [
              -73.6093372,
              45.5333416
            ],
            [
              -73.6094285,
              45.5333829
            ],
            [
              -73.6095743,
              45.5332215
            ],
            [
              -73.6089135,
              45.5329169
            ],
            [
              -73.6087744,
              45.5330755
            ],
            [
              -73.6085811,
              45.5332959
            ],
            [
              -73.6091073,
              45.5335411
            ]
          ]
        ]
      },
      "id": "way/200487110"
    },
    {
      "type": "Feature",
      "properties": {
        "@id": "way/159591772",
        "leisure": "park",
        "name": "Parc Médéric-Martin"
      },
      "geometry": {
        "type": "Polygon",
        "coordinates": [
          [
            [
              -73.5579581,
              45.5362315
            ],
            [
              -73.5581144,
              45.5360504
            ],
            [
              -73.5581237,
              45.5358771
            ],
            [
              -73.5559641,
              45.5350625
            ],
            [
              -73.5557063,
              45.5354422
            ],
            [
              -73.5579581,
              45.5362315
            ]
          ]
        ]
      },
      "id": "way/159591772"
    },
    {
      "type": "Feature",
      "properties": {
        "@id": "way/86553560",
        "leisure": "park",
        "name": "Parc Hochelaga"
      },
      "geometry": {
        "type": "Polygon",
        "coordinates": [
          [
            [
              -73.54315,
              45.5420497
            ],
            [
              -73.5431311,
              45.5420798
            ],
            [
              -73.5456673,
              45.542826
            ],
            [
              -73.5460369,
              45.5422574
            ],
            [
              -73.5434876,
              45.5414695
            ],
            [
              -73.5434579,
              45.541524
            ],
            [
              -73.54315,
              45.5420497
            ]
          ]
        ]
      },
      "id": "way/86553560"
    },
    {
      "type": "Feature",
      "properties": {
        "@id": "way/88541249",
        "leisure": "park",
        "name": "Parc Saint-Aloysius"
      },
      "geometry": {
        "type": "Polygon",
        "coordinates": [
          [
            [
              -73.5410709,
              45.5463969
            ],
            [
              -73.5414745,
              45.545694
            ],
            [
              -73.540084,
              45.5452538
            ],
            [
              -73.5396464,
              45.5459598
            ],
            [
              -73.5401776,
              45.5461228
            ],
            [
              -73.5406485,
              45.5462673
            ],
            [
              -73.5410709,
              45.5463969
            ]
          ]
        ]
      },
      "id": "way/88541249"
    },
    {
      "type": "Feature",
      "properties": {
        "@id": "way/108486554",
        "leisure": "park",
        "name": "Parc Olympique",
        "name:en": "Olympic Park"
      },
      "geometry": {
        "type": "Polygon",
        "coordinates": [
          [
            [
              -73.5543017,
              45.5651803
            ],
            [
              -73.5543691,
              45.5649902
            ],
            [
              -73.554419,
              45.5648492
            ],
            [
              -73.5544777,
              45.5645156
            ],
            [
              -73.5544838,
              45.5642358
            ],
            [
              -73.5541494,
              45.5574096
            ],
            [
              -73.5541394,
              45.556921
            ],
            [
              -73.5541676,
              45.5565793
            ],
            [
              -73.5542055,
              45.5560751
            ],
            [
              -73.5543837,
              45.5546734
            ],
            [
              -73.5517777,
              45.5538176
            ],
            [
              -73.5509467,
              45.5551545
            ],
            [
              -73.5508661,
              45.5552835
            ],
            [
              -73.5504931,
              45.5558644
            ],
            [
              -73.5483443,
              45.5591313
            ],
            [
              -73.5474502,
              45.5604679
            ],
            [
              -73.5461953,
              45.562433
            ],
            [
              -73.5461677,
              45.5624946
            ],
            [
              -73.5461919,
              45.5625345
            ],
            [
              -73.5462109,
              45.5625526
            ],
            [
              -73.5539274,
              45.5650588
            ],
            [
              -73.5543017,
              45.5651803
            ]
          ]
        ]
      },
      "id": "way/108486554"
    },
    {
      "type": "Feature",
      "properties": {
        "@id": "way/368466281",
        "leisure": "park",
        "name": "Parc Dixie"
      },
      "geometry": {
        "type": "Polygon",
        "coordinates": [
          [
            [
              -73.7176257,
              45.4424978
            ],
            [
              -73.7179749,
              45.4435602
            ],
            [
              -73.7167958,
              45.4433032
            ],
            [
              -73.7169116,
              45.4437333
            ],
            [
              -73.7180608,
              45.4439901
            ],
            [
              -73.7191782,
              45.4442242
            ],
            [
              -73.7186816,
              45.4423426
            ],
            [
              -73.7176257,
              45.4424978
            ]
          ]
        ]
      },
      "id": "way/368466281"
    },
    {
      "type": "Feature",
      "properties": {
        "@id": "way/22781731",
        "leisure": "park",
        "name": "Ballantyne"
      },
      "geometry": {
        "type": "Polygon",
        "coordinates": [
          [
            [
              -73.7341586,
              45.446795
            ],
            [
              -73.7342391,
              45.4470205
            ],
            [
              -73.7349418,
              45.4469456
            ],
            [
              -73.7349314,
              45.4468503
            ],
            [
              -73.7351728,
              45.4468075
            ],
            [
              -73.7350859,
              45.4464444
            ],
            [
              -73.735875,
              45.4463638
            ],
            [
              -73.7356624,
              45.4455416
            ],
            [
              -73.7354926,
              45.4455646
            ],
            [
              -73.7350096,
              45.4459273
            ],
            [
              -73.7347812,
              45.4456976
            ],
            [
              -73.7346513,
              45.4456982
            ],
            [
              -73.7345129,
              45.4456684
            ],
            [
              -73.7343343,
              45.4455813
            ],
            [
              -73.7340659,
              45.445338
            ],
            [
              -73.7327381,
              45.4455192
            ],
            [
              -73.7331647,
              45.4468908
            ],
            [
              -73.7341586,
              45.446795
            ]
          ]
        ]
      },
      "id": "way/22781731"
    },
    {
      "type": "Feature",
      "properties": {
        "@id": "way/40277955",
        "leisure": "park",
        "name": "Parc Marlborough"
      },
      "geometry": {
        "type": "Polygon",
        "coordinates": [
          [
            [
              -73.7221718,
              45.5226376
            ],
            [
              -73.7217436,
              45.522365
            ],
            [
              -73.720996,
              45.521889
            ],
            [
              -73.7208401,
              45.5218309
            ],
            [
              -73.7206894,
              45.5218526
            ],
            [
              -73.7197849,
              45.5221884
            ],
            [
              -73.7195374,
              45.522306
            ],
            [
              -73.7192767,
              45.5224943
            ],
            [
              -73.7197329,
              45.5227899
            ],
            [
              -73.7193399,
              45.5231238
            ],
            [
              -73.720287,
              45.5237144
            ],
            [
              -73.7204985,
              45.5235363
            ],
            [
              -73.7208672,
              45.5237297
            ],
            [
              -73.7221718,
              45.5226376
            ]
          ]
        ]
      },
      "id": "way/40277955"
    },
    {
      "type": "Feature",
      "properties": {
        "@id": "way/293205554",
        "leisure": "park",
        "name": "Parc Carignan"
      },
      "geometry": {
        "type": "Polygon",
        "coordinates": [
          [
            [
              -73.7032256,
              45.4450648
            ],
            [
              -73.702768,
              45.4420504
            ],
            [
              -73.7008105,
              45.4418991
            ],
            [
              -73.7012472,
              45.4448858
            ],
            [
              -73.7032256,
              45.4450648
            ]
          ]
        ]
      },
      "id": "way/293205554"
    },
    {
      "type": "Feature",
      "properties": {
        "@id": "way/370345453",
        "leisure": "park",
        "name": "Parc Kirkland"
      },
      "geometry": {
        "type": "Polygon",
        "coordinates": [
          [
            [
              -73.6485403,
              45.4458727
            ],
            [
              -73.6505199,
              45.4466192
            ],
            [
              -73.6505913,
              45.4465276
            ],
            [
              -73.6521021,
              45.4470118
            ],
            [
              -73.6522006,
              45.4470434
            ],
            [
              -73.6526657,
              45.4464931
            ],
            [
              -73.6524527,
              45.4464074
            ],
            [
              -73.6524131,
              45.4463928
            ],
            [
              -73.6517718,
              45.4461559
            ],
            [
              -73.6510799,
              45.4459004
            ],
            [
              -73.6511071,
              45.4458655
            ],
            [
              -73.6491617,
              45.4451215
            ],
            [
              -73.6485403,
              45.4458727
            ]
          ]
        ]
      },
      "id": "way/370345453"
    },
    {
      "type": "Feature",
      "properties": {
        "@id": "way/208178587",
        "leisure": "park",
        "name": "Parc de la Confédération"
      },
      "geometry": {
        "type": "Polygon",
        "coordinates": [
          [
            [
              -73.6417708,
              45.4740211
            ],
            [
              -73.6428238,
              45.4729036
            ],
            [
              -73.6382501,
              45.4708766
            ],
            [
              -73.6366917,
              45.4717629
            ],
            [
              -73.6417708,
              45.4740211
            ]
          ]
        ]
      },
      "id": "way/208178587"
    },
    {
      "type": "Feature",
      "properties": {
        "@id": "way/39961387",
        "leisure": "park",
        "name": "Parc Bourbonnière"
      },
      "geometry": {
        "type": "Polygon",
        "coordinates": [
          [
            [
              -73.704409,
              45.5012817
            ],
            [
              -73.7033542,
              45.5006163
            ],
            [
              -73.7025355,
              45.5012349
            ],
            [
              -73.7029361,
              45.5014976
            ],
            [
              -73.7023509,
              45.5019229
            ],
            [
              -73.7017222,
              45.50238
            ],
            [
              -73.7024477,
              45.502844
            ],
            [
              -73.7031633,
              45.5022724
            ],
            [
              -73.7043371,
              45.5013389
            ],
            [
              -73.704409,
              45.5012817
            ]
          ]
        ]
      },
      "id": "way/39961387"
    },
    {
      "type": "Feature",
      "properties": {
        "@id": "way/40602773",
        "leisure": "park",
        "name": "Parc Chamberland"
      },
      "geometry": {
        "type": "Polygon",
        "coordinates": [
          [
            [
              -73.6898646,
              45.5036161
            ],
            [
              -73.690463,
              45.5031824
            ],
            [
              -73.6904731,
              45.5031101
            ],
            [
              -73.6904051,
              45.5029727
            ],
            [
              -73.6888964,
              45.50199
            ],
            [
              -73.6883111,
              45.5024485
            ],
            [
              -73.6883028,
              45.5026347
            ],
            [
              -73.6891326,
              45.5031561
            ],
            [
              -73.6898646,
              45.5036161
            ]
          ]
        ]
      },
      "id": "way/40602773"
    },
    {
      "type": "Feature",
      "properties": {
        "@id": "way/39442415",
        "leisure": "park",
        "name": "Parc Hartenstein"
      },
      "geometry": {
        "type": "Polygon",
        "coordinates": [
          [
            [
              -73.6917867,
              45.5200515
            ],
            [
              -73.6922934,
              45.5196795
            ],
            [
              -73.6917241,
              45.518333
            ],
            [
              -73.6916984,
              45.5180623
            ],
            [
              -73.6917584,
              45.5178218
            ],
            [
              -73.6918958,
              45.5176474
            ],
            [
              -73.6910718,
              45.5171362
            ],
            [
              -73.6910632,
              45.5169558
            ],
            [
              -73.6912656,
              45.5167385
            ],
            [
              -73.6908449,
              45.5164719
            ],
            [
              -73.6898267,
              45.5172879
            ],
            [
              -73.6904624,
              45.5176835
            ],
            [
              -73.6907027,
              45.5179
            ],
            [
              -73.6907885,
              45.5181225
            ],
            [
              -73.6906941,
              45.5183811
            ],
            [
              -73.6904624,
              45.5186216
            ],
            [
              -73.6913364,
              45.519151
            ],
            [
              -73.6913658,
              45.5197771
            ],
            [
              -73.6917867,
              45.5200515
            ]
          ]
        ]
      },
      "id": "way/39442415"
    },
    {
      "type": "Feature",
      "properties": {
        "@id": "way/39452050",
        "leisure": "park",
        "name": "Parc Decelles"
      },
      "geometry": {
        "type": "Polygon",
        "coordinates": [
          [
            [
              -73.677811,
              45.5149237
            ],
            [
              -73.678811,
              45.5141154
            ],
            [
              -73.6779435,
              45.5135831
            ],
            [
              -73.6772972,
              45.5131868
            ],
            [
              -73.6766945,
              45.5136381
            ],
            [
              -73.6772233,
              45.5139783
            ],
            [
              -73.6768044,
              45.5142975
            ],
            [
              -73.6769451,
              45.5143916
            ],
            [
              -73.677811,
              45.5149237
            ]
          ]
        ]
      },
      "id": "way/39452050"
    },
    {
      "type": "Feature",
      "properties": {
        "@id": "way/367192751",
        "leisure": "park",
        "name": "Parc Rembrandt"
      },
      "geometry": {
        "type": "Polygon",
        "coordinates": [
          [
            [
              -73.6592905,
              45.4774323
            ],
            [
              -73.6600511,
              45.4765181
            ],
            [
              -73.6584624,
              45.4758354
            ],
            [
              -73.6575376,
              45.4758368
            ],
            [
              -73.6575362,
              45.476769
            ],
            [
              -73.6592905,
              45.4774323
            ]
          ]
        ]
      },
      "id": "way/367192751"
    },
    {
      "type": "Feature",
      "properties": {
        "@id": "way/21274815",
        "leisure": "park",
        "name": "Parc Hampstead",
        "name:en": "Hampstead Park"
      },
      "geometry": {
        "type": "Polygon",
        "coordinates": [
          [
            [
              -73.6475756,
              45.4820607
            ],
            [
              -73.6475295,
              45.4817019
            ],
            [
              -73.6475642,
              45.4814299
            ],
            [
              -73.6476856,
              45.4811849
            ],
            [
              -73.6481186,
              45.4807701
            ],
            [
              -73.6463579,
              45.4800205
            ],
            [
              -73.6445472,
              45.4820632
            ],
            [
              -73.6438546,
              45.4828323
            ],
            [
              -73.6452844,
              45.4834853
            ],
            [
              -73.6454782,
              45.4835738
            ],
            [
              -73.6468942,
              45.4820686
            ],
            [
              -73.6475756,
              45.4820607
            ]
          ]
        ]
      },
      "id": "way/21274815"
    },
    {
      "type": "Feature",
      "properties": {
        "@id": "way/208170375",
        "leisure": "park",
        "name": "Parc de la Savane"
      },
      "geometry": {
        "type": "Polygon",
        "coordinates": [
          [
            [
              -73.6536046,
              45.4976805
            ],
            [
              -73.6530604,
              45.4980928
            ],
            [
              -73.6540655,
              45.4986752
            ],
            [
              -73.654871,
              45.4991749
            ],
            [
              -73.6550793,
              45.4998479
            ],
            [
              -73.656552,
              45.499636
            ],
            [
              -73.6565319,
              45.49954
            ],
            [
              -73.6536046,
              45.4976805
            ]
          ]
        ]
      },
      "id": "way/208170375"
    },
    {
      "type": "Feature",
      "properties": {
        "@id": "way/20415990",
        "leisure": "park",
        "name": "Parc Danyluk",
        "name:en": "Danyluk Park",
        "name:fr": "Parc Danyluk"
      },
      "geometry": {
        "type": "Polygon",
        "coordinates": [
          [
            [
              -73.6409289,
              45.5134463
            ],
            [
              -73.6410858,
              45.5131841
            ],
            [
              -73.6412967,
              45.5127942
            ],
            [
              -73.6390635,
              45.5121342
            ],
            [
              -73.6376297,
              45.514621
            ],
            [
              -73.6402264,
              45.5153659
            ],
            [
              -73.6402671,
              45.5153024
            ],
            [
              -73.6406438,
              45.5146632
            ],
            [
              -73.6414015,
              45.5148764
            ],
            [
              -73.6420576,
              45.5137682
            ],
            [
              -73.6409289,
              45.5134463
            ]
          ]
        ]
      },
      "id": "way/20415990"
    },
    {
      "type": "Feature",
      "properties": {
        "@id": "way/4767639",
        "leisure": "park",
        "name": "Parc Kent",
        "official_name": "Parc de Kent"
      },
      "geometry": {
        "type": "Polygon",
        "coordinates": [
          [
            [
              -73.6349271,
              45.5020944
            ],
            [
              -73.6347952,
              45.5020352
            ],
            [
              -73.6330837,
              45.5012736
            ],
            [
              -73.6291841,
              45.505911
            ],
            [
              -73.6310076,
              45.5066767
            ],
            [
              -73.6349271,
              45.5020944
            ]
          ]
        ]
      },
      "id": "way/4767639"
    },
    {
      "type": "Feature",
      "properties": {
        "@id": "way/171583940",
        "leisure": "park",
        "name": "Parc John-F.-Kennedy"
      },
      "geometry": {
        "type": "Polygon",
        "coordinates": [
          [
            [
              -73.6160019,
              45.5221133
            ],
            [
              -73.6168338,
              45.5211811
            ],
            [
              -73.615802,
              45.5207157
            ],
            [
              -73.614947,
              45.5216518
            ],
            [
              -73.6160019,
              45.5221133
            ]
          ]
        ]
      },
      "id": "way/171583940"
    },
    {
      "type": "Feature",
      "properties": {
        "@id": "way/365066018",
        "leisure": "park",
        "name": "Parc John F. Kennedy"
      },
      "geometry": {
        "type": "Polygon",
        "coordinates": [
          [
            [
              -73.6149474,
              45.5216563
            ],
            [
              -73.6160128,
              45.5221275
            ],
            [
              -73.61684,
              45.5211831
            ],
            [
              -73.615794,
              45.5207082
            ],
            [
              -73.6149474,
              45.5216563
            ]
          ]
        ]
      },
      "id": "way/365066018"
    },
    {
      "type": "Feature",
      "properties": {
        "@id": "way/279661481",
        "leisure": "park",
        "name": "Parc Ignace-Bourget"
      },
      "geometry": {
        "type": "Polygon",
        "coordinates": [
          [
            [
              -73.6041887,
              45.4582262
            ],
            [
              -73.6061527,
              45.4578072
            ],
            [
              -73.606243,
              45.4573664
            ],
            [
              -73.6078339,
              45.4570885
            ],
            [
              -73.607281,
              45.4551969
            ],
            [
              -73.6068312,
              45.4544712
            ],
            [
              -73.6065734,
              45.4543889
            ],
            [
              -73.6064278,
              45.4543423
            ],
            [
              -73.6054657,
              45.4540349
            ],
            [
              -73.6049148,
              45.453859
            ],
            [
              -73.6043727,
              45.4536648
            ],
            [
              -73.6032741,
              45.4549965
            ],
            [
              -73.6031618,
              45.455138
            ],
            [
              -73.6031132,
              45.4551995
            ],
            [
              -73.6033023,
              45.4557316
            ],
            [
              -73.603526,
              45.4563612
            ],
            [
              -73.6040869,
              45.4579397
            ],
            [
              -73.6041887,
              45.4582262
            ]
          ]
        ]
      },
      "id": "way/279661481"
    },
    {
      "type": "Feature",
      "properties": {
        "@id": "way/367750557",
        "landuse": "recreation_ground",
        "leisure": "park",
        "name": "Parc Curé-Albert-Arnold"
      },
      "geometry": {
        "type": "Polygon",
        "coordinates": [
          [
            [
              -73.5950788,
              45.4500801
            ],
            [
              -73.5963397,
              45.4498628
            ],
            [
              -73.5961544,
              45.4493336
            ],
            [
              -73.5957222,
              45.449408
            ],
            [
              -73.5948935,
              45.4495509
            ],
            [
              -73.5950788,
              45.4500801
            ]
          ]
        ]
      },
      "id": "way/367750557"
    },
    {
      "type": "Feature",
      "properties": {
        "@id": "way/367747936",
        "leisure": "park",
        "name": "Parc Campbell Ouest"
      },
      "geometry": {
        "type": "Polygon",
        "coordinates": [
          [
            [
              -73.5928175,
              45.4581107
            ],
            [
              -73.5928547,
              45.4577257
            ],
            [
              -73.5905208,
              45.4576167
            ],
            [
              -73.5897994,
              45.4575804
            ],
            [
              -73.5897647,
              45.4574832
            ],
            [
              -73.5884289,
              45.4574376
            ],
            [
              -73.5884018,
              45.4577143
            ],
            [
              -73.5883869,
              45.4579656
            ],
            [
              -73.5883698,
              45.4581361
            ],
            [
              -73.5904647,
              45.458222
            ],
            [
              -73.5923712,
              45.458305
            ],
            [
              -73.5923961,
              45.4580933
            ],
            [
              -73.5928175,
              45.4581107
            ]
          ]
        ]
      },
      "id": "way/367747936"
    },
    {
      "type": "Feature",
      "properties": {
        "@id": "way/24653030",
        "leisure": "park",
        "name": "Parc Arthur-Therrien"
      },
      "geometry": {
        "type": "Polygon",
        "coordinates": [
          [
            [
              -73.5618906,
              45.4695158
            ],
            [
              -73.5621631,
              45.4695353
            ],
            [
              -73.5622999,
              45.4696068
            ],
            [
              -73.5622775,
              45.469676
            ],
            [
              -73.562631,
              45.4691772
            ],
            [
              -73.5627398,
              45.4685362
            ],
            [
              -73.5627174,
              45.4682795
            ],
            [
              -73.5626881,
              45.4677831
            ],
            [
              -73.5623251,
              45.4668792
            ],
            [
              -73.5622429,
              45.4661867
            ],
            [
              -73.5623209,
              45.4659033
            ],
            [
              -73.5623517,
              45.4657911
            ],
            [
              -73.5626759,
              45.4650426
            ],
            [
              -73.5627544,
              45.4645398
            ],
            [
              -73.5625043,
              45.4632114
            ],
            [
              -73.562432,
              45.4628894
            ],
            [
              -73.5624501,
              45.4624847
            ],
            [
              -73.5624453,
              45.4623023
            ],
            [
              -73.5623908,
              45.4621327
            ],
            [
              -73.5608007,
              45.4620508
            ],
            [
              -73.5601215,
              45.4619703
            ],
            [
              -73.5601223,
              45.4624106
            ],
            [
              -73.5599445,
              45.4636749
            ],
            [
              -73.5598309,
              45.4644058
            ],
            [
              -73.5598309,
              45.4645687
            ],
            [
              -73.5598112,
              45.4659206
            ],
            [
              -73.5596445,
              45.4667293
            ],
            [
              -73.5596877,
              45.4670318
            ],
            [
              -73.5596198,
              45.4672478
            ],
            [
              -73.5596754,
              45.4674021
            ],
            [
              -73.5596075,
              45.4678404
            ],
            [
              -73.5596198,
              45.4680071
            ],
            [
              -73.5594655,
              45.4681923
            ],
            [
              -73.559268,
              45.4682911
            ],
            [
              -73.5591507,
              45.4684577
            ],
            [
              -73.5587247,
              45.4687479
            ],
            [
              -73.5587298,
              45.4694621
            ],
            [
              -73.5595367,
              45.4694554
            ],
            [
              -73.5599964,
              45.4694516
            ],
            [
              -73.5615432,
              45.4695038
            ],
            [
              -73.5618906,
              45.4695158
            ]
          ]
        ]
      },
      "id": "way/24653030"
    },
    {
      "type": "Feature",
      "properties": {
        "@id": "way/93829464",
        "leisure": "park",
        "name": "Parc de la Fontaine",
        "source": "NRCan-CanVec-7.0"
      },
      "geometry": {
        "type": "Polygon",
        "coordinates": [
          [
            [
              -73.5456721,
              45.4628774
            ],
            [
              -73.5446853,
              45.4627598
            ],
            [
              -73.544599,
              45.4628793
            ],
            [
              -73.5440826,
              45.4628176
            ],
            [
              -73.5440241,
              45.4631225
            ],
            [
              -73.5441458,
              45.4631995
            ],
            [
              -73.544144,
              45.4632836
            ],
            [
              -73.5439995,
              45.4633325
            ],
            [
              -73.5439205,
              45.4633036
            ],
            [
              -73.5438308,
              45.4632157
            ],
            [
              -73.5424063,
              45.4629973
            ],
            [
              -73.5421379,
              45.4634272
            ],
            [
              -73.5422436,
              45.4634814
            ],
            [
              -73.5437268,
              45.4644955
            ],
            [
              -73.5438893,
              45.4649715
            ],
            [
              -73.5441703,
              45.4650441
            ],
            [
              -73.5443884,
              45.4650527
            ],
            [
              -73.5445731,
              45.4644836
            ],
            [
              -73.545088,
              45.4636771
            ],
            [
              -73.5453208,
              45.4632363
            ],
            [
              -73.5456721,
              45.4628774
            ]
          ]
        ]
      },
      "id": "way/93829464"
    },
    {
      "type": "Feature",
      "properties": {
        "@id": "way/165217884",
        "internet_access": "wlan",
        "internet_access:fee": "no",
        "leisure": "park",
        "name": "Westmount Park"
      },
      "geometry": {
        "type": "Polygon",
        "coordinates": [
          [
            [
              -73.5964438,
              45.4797947
            ],
            [
              -73.596177,
              45.4800153
            ],
            [
              -73.5944181,
              45.4814692
            ],
            [
              -73.5984693,
              45.4832922
            ],
            [
              -73.5996824,
              45.482243
            ],
            [
              -73.5993104,
              45.482047
            ],
            [
              -73.5996169,
              45.4817371
            ],
            [
              -73.5987503,
              45.4813358
            ],
            [
              -73.5993904,
              45.480613
            ],
            [
              -73.5976513,
              45.4799143
            ],
            [
              -73.5972558,
              45.480255
            ],
            [
              -73.5964438,
              45.4797947
            ]
          ]
        ]
      },
      "id": "way/165217884"
    },
    {
      "type": "Feature",
      "properties": {
        "@id": "way/34746802",
        "leisure": "park",
        "name": "Parc Sir-George-Étienne-Cartier"
      },
      "geometry": {
        "type": "Polygon",
        "coordinates": [
          [
            [
              -73.5873845,
              45.4742491
            ],
            [
              -73.5875393,
              45.4740675
            ],
            [
              -73.5878586,
              45.4736929
            ],
            [
              -73.5876271,
              45.4735816
            ],
            [
              -73.5876103,
              45.4735718
            ],
            [
              -73.5869705,
              45.4732597
            ],
            [
              -73.5860074,
              45.4728236
            ],
            [
              -73.5854072,
              45.4725395
            ],
            [
              -73.5843043,
              45.4720227
            ],
            [
              -73.58368,
              45.472542
            ],
            [
              -73.5848739,
              45.4731197
            ],
            [
              -73.5854662,
              45.4733774
            ],
            [
              -73.5864514,
              45.4738269
            ],
            [
              -73.5868531,
              45.4740087
            ],
            [
              -73.5872512,
              45.4741888
            ],
            [
              -73.5873845,
              45.4742491
            ]
          ]
        ]
      },
      "id": "way/34746802"
    },
    {
      "type": "Feature",
      "properties": {
        "@id": "way/49939935",
        "leisure": "park",
        "name": "Parc Jeanne-Mance",
        "wikidata": "Q3363836",
        "wikipedia": "fr:Parc Jeanne-Mance"
      },
      "geometry": {
        "type": "Polygon",
        "coordinates": [
          [
            [
              -73.5810195,
              45.5151963
            ],
            [
              -73.5833458,
              45.5162832
            ],
            [
              -73.5856895,
              45.5173499
            ],
            [
              -73.5879382,
              45.5183578
            ],
            [
              -73.5893237,
              45.5167974
            ],
            [
              -73.5891538,
              45.5167585
            ],
            [
              -73.5889071,
              45.5166525
            ],
            [
              -73.5823987,
              45.5136858
            ],
            [
              -73.5792065,
              45.5122793
            ],
            [
              -73.5780858,
              45.5117068
            ],
            [
              -73.577711,
              45.5121155
            ],
            [
              -73.5798384,
              45.5130596
            ],
            [
              -73.5797075,
              45.5132057
            ],
            [
              -73.579531,
              45.5134028
            ],
            [
              -73.5816702,
              45.5143603
            ],
            [
              -73.5817507,
              45.5144134
            ],
            [
              -73.5810195,
              45.5151963
            ]
          ]
        ]
      },
      "id": "way/49939935"
    },
    {
      "type": "Feature",
      "properties": {
        "@id": "way/361092678",
        "leisure": "park",
        "name": "Parc Alexandra"
      },
      "geometry": {
        "type": "Polygon",
        "coordinates": [
          [
            [
              -73.5064813,
              45.4917494
            ],
            [
              -73.5065083,
              45.4910482
            ],
            [
              -73.5061135,
              45.4910419
            ],
            [
              -73.5060148,
              45.4910262
            ],
            [
              -73.5059789,
              45.4910104
            ],
            [
              -73.5053509,
              45.49024
            ],
            [
              -73.505158,
              45.4902368
            ],
            [
              -73.5049471,
              45.4902903
            ],
            [
              -73.5043056,
              45.4904884
            ],
            [
              -73.504669,
              45.4909601
            ],
            [
              -73.5049875,
              45.4914192
            ],
            [
              -73.5051625,
              45.4917086
            ],
            [
              -73.5064813,
              45.4917494
            ]
          ]
        ]
      },
      "id": "way/361092678"
    },
    {
      "type": "Feature",
      "properties": {
        "@id": "way/95343848",
        "leisure": "park",
        "name": "Parc des vétérans"
      },
      "geometry": {
        "type": "Polygon",
        "coordinates": [
          [
            [
              -73.5540962,
              45.5235268
            ],
            [
              -73.5537643,
              45.5238582
            ],
            [
              -73.5558592,
              45.5248434
            ],
            [
              -73.5557271,
              45.5250208
            ],
            [
              -73.5557417,
              45.5250366
            ],
            [
              -73.5557357,
              45.5251198
            ],
            [
              -73.5553685,
              45.5254817
            ],
            [
              -73.5553175,
              45.525508
            ],
            [
              -73.5552668,
              45.525511
            ],
            [
              -73.553805,
              45.5248394
            ],
            [
              -73.5535208,
              45.5250924
            ],
            [
              -73.5534709,
              45.5251687
            ],
            [
              -73.5538463,
              45.5252895
            ],
            [
              -73.5545443,
              45.5255986
            ],
            [
              -73.5547099,
              45.525663
            ],
            [
              -73.5549265,
              45.5257015
            ],
            [
              -73.5550881,
              45.5257062
            ],
            [
              -73.55552,
              45.5256742
            ],
            [
              -73.55565,
              45.5256475
            ],
            [
              -73.5557674,
              45.5255991
            ],
            [
              -73.5558358,
              45.5255605
            ],
            [
              -73.5559303,
              45.5254753
            ],
            [
              -73.5560873,
              45.5252881
            ],
            [
              -73.5562,
              45.5251453
            ],
            [
              -73.5562965,
              45.524948
            ],
            [
              -73.5563207,
              45.5247882
            ],
            [
              -73.5562724,
              45.5246078
            ],
            [
              -73.5562027,
              45.5245203
            ],
            [
              -73.5561437,
              45.5244462
            ],
            [
              -73.5560337,
              45.5243579
            ],
            [
              -73.5543991,
              45.5236564
            ],
            [
              -73.5540962,
              45.5235268
            ]
          ]
        ]
      },
      "id": "way/95343848"
    },
    {
      "type": "Feature",
      "properties": {
        "@id": "way/45088911",
        "leisure": "park",
        "name": "Parc Riverside",
        "name:fr": "Parc de la Voie maritime"
      },
      "geometry": {
        "type": "Polygon",
        "coordinates": [
          [
            [
              -73.5220457,
              45.5152385
            ],
            [
              -73.5196539,
              45.5075601
            ],
            [
              -73.5192033,
              45.5062443
            ],
            [
              -73.5186025,
              45.5051916
            ],
            [
              -73.5176047,
              45.5048382
            ],
            [
              -73.5174331,
              45.5059285
            ],
            [
              -73.517315,
              45.5069887
            ],
            [
              -73.5173258,
              45.5075751
            ],
            [
              -73.5174223,
              45.5083646
            ],
            [
              -73.5176154,
              45.5091616
            ],
            [
              -73.5178622,
              45.510109
            ],
            [
              -73.5179695,
              45.5105526
            ],
            [
              -73.5179695,
              45.5109586
            ],
            [
              -73.5178408,
              45.5117104
            ],
            [
              -73.5177442,
              45.5122292
            ],
            [
              -73.5177227,
              45.5126728
            ],
            [
              -73.5176798,
              45.5131314
            ],
            [
              -73.5177442,
              45.5135223
            ],
            [
              -73.5178837,
              45.5140335
            ],
            [
              -73.5182163,
              45.5150184
            ],
            [
              -73.5185937,
              45.5157804
            ],
            [
              -73.5186518,
              45.5157712
            ],
            [
              -73.5211176,
              45.515381
            ],
            [
              -73.521883,
              45.5152635
            ],
            [
              -73.5220457,
              45.5152385
            ]
          ]
        ]
      },
      "id": "way/45088911"
    },
    {
      "type": "Feature",
      "properties": {
        "@id": "way/114817407",
        "leisure": "park",
        "name": "Parc Préville",
        "source": "NRCan-CanVec-7.0"
      },
      "geometry": {
        "type": "Polygon",
        "coordinates": [
          [
            [
              -73.4961548,
              45.4792588
            ],
            [
              -73.4929058,
              45.4792145
            ],
            [
              -73.4928871,
              45.4804586
            ],
            [
              -73.4940628,
              45.480485
            ],
            [
              -73.4961517,
              45.4805279
            ],
            [
              -73.4961563,
              45.4804205
            ],
            [
              -73.4961984,
              45.4794365
            ],
            [
              -73.4961548,
              45.4792588
            ]
          ]
        ]
      },
      "id": "way/114817407"
    },
    {
      "type": "Feature",
      "properties": {
        "@id": "way/114817363",
        "addr:housenumber": "195",
        "addr:street": "Rue Empire",
        "leisure": "park",
        "name": "Parc Empire",
        "note": "previously Parc Pierre-Laporte",
        "source": "NRCan-CanVec-7.0",
        "website": "http://www.longueuil.ca/en/parc-empire"
      },
      "geometry": {
        "type": "Polygon",
        "coordinates": [
          [
            [
              -73.4882316,
              45.4921913
            ],
            [
              -73.4874389,
              45.4927231
            ],
            [
              -73.4903751,
              45.4948087
            ],
            [
              -73.4907997,
              45.4945473
            ],
            [
              -73.4912433,
              45.4943282
            ],
            [
              -73.4913962,
              45.4942073
            ],
            [
              -73.4910834,
              45.4940067
            ],
            [
              -73.4915894,
              45.4935023
            ],
            [
              -73.4904611,
              45.4926595
            ],
            [
              -73.4896678,
              45.4931774
            ],
            [
              -73.4894901,
              45.4931052
            ],
            [
              -73.4882316,
              45.4921913
            ]
          ]
        ]
      },
      "id": "way/114817363"
    },
    {
      "type": "Feature",
      "properties": {
        "@id": "way/391803368",
        "leisure": "park",
        "name": "Parc Lespérance"
      },
      "geometry": {
        "type": "Polygon",
        "coordinates": [
          [
            [
              -73.5046995,
              45.5055382
            ],
            [
              -73.5052341,
              45.5047814
            ],
            [
              -73.5045934,
              45.5045717
            ],
            [
              -73.5048999,
              45.5041457
            ],
            [
              -73.5042297,
              45.5039018
            ],
            [
              -73.5043544,
              45.5037124
            ],
            [
              -73.5030438,
              45.5032229
            ],
            [
              -73.5021874,
              45.5048307
            ],
            [
              -73.5021628,
              45.5049297
            ],
            [
              -73.5023129,
              45.5049695
            ],
            [
              -73.5024567,
              45.5050119
            ],
            [
              -73.5041375,
              45.5056058
            ],
            [
              -73.504274,
              45.5054026
            ],
            [
              -73.5046995,
              45.5055382
            ]
          ]
        ]
      },
      "id": "way/391803368"
    },
    {
      "type": "Feature",
      "properties": {
        "@id": "way/254744000",
        "leisure": "park",
        "name": "Parc du Bon-Pasteur",
        "sport": "multi"
      },
      "geometry": {
        "type": "Polygon",
        "coordinates": [
          [
            [
              -73.7091002,
              45.5501376
            ],
            [
              -73.7078798,
              45.5489054
            ],
            [
              -73.7069461,
              45.5493613
            ],
            [
              -73.7072372,
              45.5496571
            ],
            [
              -73.7081768,
              45.550612
            ],
            [
              -73.7087727,
              45.5503058
            ],
            [
              -73.70902,
              45.5501788
            ],
            [
              -73.7091002,
              45.5501376
            ]
          ]
        ]
      },
      "id": "way/254744000"
    },
    {
      "type": "Feature",
      "properties": {
        "@id": "way/35963739",
        "leisure": "park",
        "name": "Parc Marcelin-Wilson"
      },
      "geometry": {
        "type": "Polygon",
        "coordinates": [
          [
            [
              -73.6902582,
              45.540181
            ],
            [
              -73.6911275,
              45.5390719
            ],
            [
              -73.6889358,
              45.5380515
            ],
            [
              -73.6815631,
              45.5346988
            ],
            [
              -73.6809883,
              45.5347929
            ],
            [
              -73.6805088,
              45.5350064
            ],
            [
              -73.6796265,
              45.5363485
            ],
            [
              -73.6855365,
              45.5384688
            ],
            [
              -73.685103,
              45.5391372
            ],
            [
              -73.6873743,
              45.5398887
            ],
            [
              -73.6877557,
              45.5392905
            ],
            [
              -73.6877758,
              45.5392976
            ],
            [
              -73.6902582,
              45.540181
            ]
          ]
        ]
      },
      "id": "way/35963739"
    },
    {
      "type": "Feature",
      "properties": {
        "@id": "way/39390947",
        "leisure": "park",
        "name": "Parc St-Laurent"
      },
      "geometry": {
        "type": "Polygon",
        "coordinates": [
          [
            [
              -73.6872911,
              45.5258683
            ],
            [
              -73.6865232,
              45.5264647
            ],
            [
              -73.6856589,
              45.5276444
            ],
            [
              -73.6852263,
              45.5283514
            ],
            [
              -73.6865052,
              45.5286359
            ],
            [
              -73.687157,
              45.5284942
            ],
            [
              -73.6876456,
              45.5284014
            ],
            [
              -73.6881065,
              45.5284221
            ],
            [
              -73.6883693,
              45.5284675
            ],
            [
              -73.6887464,
              45.5284889
            ],
            [
              -73.6896906,
              45.5272762
            ],
            [
              -73.6899663,
              45.5268842
            ],
            [
              -73.6901771,
              45.5266483
            ],
            [
              -73.6902029,
              45.5265449
            ],
            [
              -73.6891938,
              45.5259203
            ],
            [
              -73.688371,
              45.5265415
            ],
            [
              -73.6872911,
              45.5258683
            ]
          ]
        ]
      },
      "id": "way/39390947"
    },
    {
      "type": "Feature",
      "properties": {
        "@id": "way/40288491",
        "leisure": "park",
        "name": "Parc Painter"
      },
      "geometry": {
        "type": "Polygon",
        "coordinates": [
          [
            [
              -73.6775342,
              45.5285817
            ],
            [
              -73.6768279,
              45.5283693
            ],
            [
              -73.6773084,
              45.5274705
            ],
            [
              -73.6771056,
              45.5274117
            ],
            [
              -73.6766028,
              45.5283133
            ],
            [
              -73.6758218,
              45.5281319
            ],
            [
              -73.675418,
              45.5288954
            ],
            [
              -73.6749214,
              45.5293355
            ],
            [
              -73.6752746,
              45.5297209
            ],
            [
              -73.6759707,
              45.5295933
            ],
            [
              -73.6765766,
              45.5294047
            ],
            [
              -73.6770334,
              45.5291589
            ],
            [
              -73.6773756,
              45.5288611
            ],
            [
              -73.6775342,
              45.5285817
            ]
          ]
        ]
      },
      "id": "way/40288491"
    },
    {
      "type": "Feature",
      "properties": {
        "@id": "way/29016707",
        "leisure": "park",
        "name": "Parc Saint-Claude"
      },
      "geometry": {
        "type": "Polygon",
        "coordinates": [
          [
            [
              -73.6945812,
              45.5616695
            ],
            [
              -73.6943064,
              45.5615727
            ],
            [
              -73.6927627,
              45.5615825
            ],
            [
              -73.6917738,
              45.5615888
            ],
            [
              -73.691822,
              45.5619436
            ],
            [
              -73.691907,
              45.562205
            ],
            [
              -73.6919955,
              45.5623617
            ],
            [
              -73.6920624,
              45.5624406
            ],
            [
              -73.6927965,
              45.5630782
            ],
            [
              -73.6935109,
              45.5627321
            ],
            [
              -73.6939534,
              45.5631064
            ],
            [
              -73.6943632,
              45.5631414
            ],
            [
              -73.6947385,
              45.5618987
            ],
            [
              -73.6947013,
              45.5617717
            ],
            [
              -73.6945812,
              45.5616695
            ]
          ]
        ]
      },
      "id": "way/29016707"
    },
    {
      "type": "Feature",
      "properties": {
        "@id": "way/373395780",
        "leisure": "park",
        "name": "Parc Émile"
      },
      "geometry": {
        "type": "Polygon",
        "coordinates": [
          [
            [
              -73.6842729,
              45.5581785
            ],
            [
              -73.6831113,
              45.5588146
            ],
            [
              -73.6841752,
              45.5597308
            ],
            [
              -73.6847541,
              45.5594139
            ],
            [
              -73.6850436,
              45.5593068
            ],
            [
              -73.6852418,
              45.5592749
            ],
            [
              -73.6853204,
              45.5592709
            ],
            [
              -73.6854345,
              45.5592651
            ],
            [
              -73.6856388,
              45.5592749
            ],
            [
              -73.6858182,
              45.5592844
            ],
            [
              -73.686426,
              45.5593528
            ],
            [
              -73.6866391,
              45.5593608
            ],
            [
              -73.6868265,
              45.5593539
            ],
            [
              -73.6873318,
              45.5592783
            ],
            [
              -73.6879782,
              45.559079
            ],
            [
              -73.688346,
              45.5589842
            ],
            [
              -73.688969,
              45.5588469
            ],
            [
              -73.6899359,
              45.5587759
            ],
            [
              -73.689235,
              45.558201
            ],
            [
              -73.6892886,
              45.5581634
            ],
            [
              -73.6884445,
              45.5574073
            ],
            [
              -73.6871377,
              45.5581136
            ],
            [
              -73.686821,
              45.5582235
            ],
            [
              -73.6866928,
              45.5580932
            ],
            [
              -73.6857916,
              45.5583486
            ],
            [
              -73.6857106,
              45.5582386
            ],
            [
              -73.6852211,
              45.5585247
            ],
            [
              -73.6849926,
              45.558341
            ],
            [
              -73.6847289,
              45.558524
            ],
            [
              -73.6842729,
              45.5581785
            ]
          ]
        ]
      },
      "id": "way/373395780"
    },
    {
      "type": "Feature",
      "properties": {
        "@id": "way/20226098",
        "addr:housenumber": "7920",
        "addr:postcode": "H2R 1W9",
        "addr:street": "Boulevard Saint-Laurent",
        "addr:suburb": "Villeray-Saint-Michel-PE",
        "history": "Retrieved from v2",
        "internet_access": "wlan",
        "internet_access:operator": "Île Sans Fil",
        "leisure": "park",
        "name": "Parc Jarry",
        "phone": "+1-514-872-6381",
        "website": "www.parcjarry.org"
      },
      "geometry": {
        "type": "Polygon",
        "coordinates": [
          [
            [
              -73.6223887,
              45.5361661
            ],
            [
              -73.6312577,
              45.5387893
            ],
            [
              -73.6328903,
              45.5360239
            ],
            [
              -73.6344212,
              45.533328
            ],
            [
              -73.6296122,
              45.5325912
            ],
            [
              -73.6296544,
              45.5327083
            ],
            [
              -73.6288928,
              45.5328448
            ],
            [
              -73.6290823,
              45.5333294
            ],
            [
              -73.6290153,
              45.5333454
            ],
            [
              -73.6289158,
              45.5333979
            ],
            [
              -73.6287702,
              45.5334528
            ],
            [
              -73.6287008,
              45.5334713
            ],
            [
              -73.628544,
              45.5334905
            ],
            [
              -73.6284404,
              45.5335187
            ],
            [
              -73.6281212,
              45.5335261
            ],
            [
              -73.6280107,
              45.5335319
            ],
            [
              -73.6275755,
              45.5335863
            ],
            [
              -73.6274328,
              45.5336327
            ],
            [
              -73.6273295,
              45.5336632
            ],
            [
              -73.6271976,
              45.5337189
            ],
            [
              -73.6270631,
              45.5337877
            ],
            [
              -73.6269131,
              45.5338622
            ],
            [
              -73.6267887,
              45.5338986
            ],
            [
              -73.6266483,
              45.5336011
            ],
            [
              -73.6254579,
              45.5338165
            ],
            [
              -73.625158,
              45.533008
            ],
            [
              -73.6244489,
              45.5327971
            ],
            [
              -73.6223887,
              45.5361661
            ]
          ]
        ]
      },
      "id": "way/20226098"
    },
    {
      "type": "Feature",
      "properties": {
        "@id": "way/13687084",
        "internet_access": "wlan",
        "internet_access:operator": "ilesansfil.org",
        "internet_access:ssid": "ParcLaurier",
        "leisure": "park",
        "name": "Parc Sir-Wilfrid-Laurier"
      },
      "geometry": {
        "type": "Polygon",
        "coordinates": [
          [
            [
              -73.590879,
              45.531899
            ],
            [
              -73.5868172,
              45.5300893
            ],
            [
              -73.5855809,
              45.5314834
            ],
            [
              -73.5847498,
              45.5324139
            ],
            [
              -73.5886885,
              45.5342631
            ],
            [
              -73.5903201,
              45.5325238
            ],
            [
              -73.590879,
              45.531899
            ]
          ]
        ]
      },
      "id": "way/13687084"
    },
    {
      "type": "Feature",
      "properties": {
        "@id": "way/363281018",
        "leisure": "park",
        "name": "Parc de Rouen-Bennett"
      },
      "geometry": {
        "type": "Polygon",
        "coordinates": [
          [
            [
              -73.5417689,
              45.5531575
            ],
            [
              -73.5415958,
              45.5531024
            ],
            [
              -73.5415489,
              45.5531834
            ],
            [
              -73.5414765,
              45.5532869
            ],
            [
              -73.5413683,
              45.5534625
            ],
            [
              -73.5411323,
              45.5534075
            ],
            [
              -73.5399844,
              45.5530393
            ],
            [
              -73.5399483,
              45.5530704
            ],
            [
              -73.5395232,
              45.552932
            ],
            [
              -73.5394653,
              45.5530259
            ],
            [
              -73.5404073,
              45.5533301
            ],
            [
              -73.5404564,
              45.5532572
            ],
            [
              -73.5410905,
              45.5534658
            ],
            [
              -73.5410641,
              45.5535137
            ],
            [
              -73.5411289,
              45.5535641
            ],
            [
              -73.5411313,
              45.5536364
            ],
            [
              -73.5411998,
              45.5536515
            ],
            [
              -73.5410233,
              45.5539247
            ],
            [
              -73.5409669,
              45.5539071
            ],
            [
              -73.5407349,
              45.5542745
            ],
            [
              -73.5406128,
              45.5544696
            ],
            [
              -73.5405589,
              45.5545431
            ],
            [
              -73.5405202,
              45.554576
            ],
            [
              -73.5404202,
              45.5546234
            ],
            [
              -73.5402961,
              45.5546193
            ],
            [
              -73.5402654,
              45.5546581
            ],
            [
              -73.5397881,
              45.5545111
            ],
            [
              -73.5397524,
              45.554555
            ],
            [
              -73.5396912,
              45.5545805
            ],
            [
              -73.5395909,
              45.5545813
            ],
            [
              -73.53994,
              45.5546899
            ],
            [
              -73.5395296,
              45.5553269
            ],
            [
              -73.5396473,
              45.5553645
            ],
            [
              -73.5398577,
              45.5550273
            ],
            [
              -73.5402264,
              45.555162
            ],
            [
              -73.540334,
              45.5549882
            ],
            [
              -73.540501,
              45.5550448
            ],
            [
              -73.5401894,
              45.555538
            ],
            [
              -73.5403877,
              45.5556362
            ],
            [
              -73.5410534,
              45.5545677
            ],
            [
              -73.5424638,
              45.5550205
            ],
            [
              -73.5427972,
              45.5545169
            ],
            [
              -73.5426756,
              45.554474
            ],
            [
              -73.5411043,
              45.5539588
            ],
            [
              -73.5413996,
              45.5535217
            ],
            [
              -73.541516,
              45.5535574
            ],
            [
              -73.5417689,
              45.5531575
            ]
          ]
        ]
      },
      "id": "way/363281018"
    },
    {
      "type": "Feature",
      "properties": {
        "@id": "way/124752680",
        "leisure": "park",
        "name": "Parc de l'Honorable-George-O'Reilly"
      },
      "geometry": {
        "type": "Polygon",
        "coordinates": [
          [
            [
              -73.5675604,
              45.450362
            ],
            [
              -73.5676183,
              45.4502339
            ],
            [
              -73.56818,
              45.4503371
            ],
            [
              -73.5683388,
              45.4499409
            ],
            [
              -73.5686843,
              45.4491399
            ],
            [
              -73.5687998,
              45.4489283
            ],
            [
              -73.5691188,
              45.4486588
            ],
            [
              -73.5694413,
              45.4484625
            ],
            [
              -73.57001,
              45.4481784
            ],
            [
              -73.5704024,
              45.4480467
            ],
            [
              -73.5711562,
              45.4477936
            ],
            [
              -73.571498,
              45.4476363
            ],
            [
              -73.5718152,
              45.4473784
            ],
            [
              -73.5722882,
              45.4469859
            ],
            [
              -73.5724744,
              45.4467746
            ],
            [
              -73.572552,
              45.4466866
            ],
            [
              -73.5727096,
              45.4465078
            ],
            [
              -73.572841,
              45.4463587
            ],
            [
              -73.5734132,
              45.4456103
            ],
            [
              -73.5736982,
              45.4453608
            ],
            [
              -73.5740582,
              45.4450932
            ],
            [
              -73.5746107,
              45.4447639
            ],
            [
              -73.5764614,
              45.4438117
            ],
            [
              -73.5768906,
              45.4435633
            ],
            [
              -73.577309,
              45.4432697
            ],
            [
              -73.5776362,
              45.4430062
            ],
            [
              -73.578743,
              45.4418829
            ],
            [
              -73.5789797,
              45.4416165
            ],
            [
              -73.5792193,
              45.4413023
            ],
            [
              -73.579503,
              45.440944
            ],
            [
              -73.5798105,
              45.4405778
            ],
            [
              -73.5802491,
              45.4400084
            ],
            [
              -73.5805526,
              45.4396978
            ],
            [
              -73.5809162,
              45.4393531
            ],
            [
              -73.5817808,
              45.4385912
            ],
            [
              -73.5824709,
              45.4380099
            ],
            [
              -73.5831504,
              45.4374022
            ],
            [
              -73.5832256,
              45.437347
            ],
            [
              -73.5839545,
              45.4368117
            ],
            [
              -73.5847279,
              45.4362303
            ],
            [
              -73.5855177,
              45.4356712
            ],
            [
              -73.5856846,
              45.435544
            ],
            [
              -73.5859606,
              45.4353371
            ],
            [
              -73.5838623,
              45.4349824
            ],
            [
              -73.5836933,
              45.4351671
            ],
            [
              -73.5833647,
              45.4354594
            ],
            [
              -73.5829633,
              45.4357947
            ],
            [
              -73.5825579,
              45.4361384
            ],
            [
              -73.5822206,
              45.4364158
            ],
            [
              -73.5817241,
              45.4368303
            ],
            [
              -73.5813919,
              45.4371103
            ],
            [
              -73.5804558,
              45.4378693
            ],
            [
              -73.58021,
              45.438064
            ],
            [
              -73.5799846,
              45.4382098
            ],
            [
              -73.5798864,
              45.4382667
            ],
            [
              -73.5798161,
              45.4382996
            ],
            [
              -73.5798312,
              45.4383644
            ],
            [
              -73.5789816,
              45.4391286
            ],
            [
              -73.5776551,
              45.4402697
            ],
            [
              -73.5766923,
              45.4411007
            ],
            [
              -73.576361,
              45.441237
            ],
            [
              -73.5754115,
              45.4420561
            ],
            [
              -73.5744726,
              45.4428204
            ],
            [
              -73.5744035,
              45.442918
            ],
            [
              -73.574386,
              45.4429338
            ],
            [
              -73.5739295,
              45.4433452
            ],
            [
              -73.5738783,
              45.4433913
            ],
            [
              -73.572722,
              45.4442165
            ],
            [
              -73.5715234,
              45.4452926
            ],
            [
              -73.5709568,
              45.4457815
            ],
            [
              -73.5702053,
              45.4464298
            ],
            [
              -73.5688828,
              45.4473397
            ],
            [
              -73.5689658,
              45.4473756
            ],
            [
              -73.5690041,
              45.4473922
            ],
            [
              -73.5690377,
              45.4474749
            ],
            [
              -73.5689553,
              45.4476909
            ],
            [
              -73.5685911,
              45.4480756
            ],
            [
              -73.5675633,
              45.4490671
            ],
            [
              -73.5669465,
              45.4495325
            ],
            [
              -73.5655568,
              45.4513463
            ],
            [
              -73.5639136,
              45.4538559
            ],
            [
              -73.5642655,
              45.4539727
            ],
            [
              -73.5645445,
              45.4534702
            ],
            [
              -73.565023,
              45.45294
            ],
            [
              -73.5655744,
              45.4520892
            ],
            [
              -73.565892,
              45.4514874
            ],
            [
              -73.5667868,
              45.4501436
            ],
            [
              -73.5675604,
              45.450362
            ]
          ]
        ]
      },
      "id": "way/124752680"
    }
  ]
}